<svg version="1.1" id="Layer_1" xmlns="http://www.w3.org/2000/svg" xmlns:xlink="http://www.w3.org/1999/xlink" x="0px" y="0px"
	 viewBox="0 0 27.9 27.8" enable-background="new 0 0 27.9 27.8" xml:space="preserve">
<path fill-rule="evenodd" clip-rule="evenodd" d="M13.9,20.5l-0.7-0.1l-0.7-0.1L12,20.2L11.3,20l-0.6-0.2l-0.6-0.3l-0.5-0.5
	l-0.5-0.3L8.8,18l-0.3-0.5L8.2,17l-0.3-0.6l-0.2-0.6l-0.1-0.7l-0.1-0.7v-0.7v-0.7l0.1-0.6l0.1-0.7l0.2-0.6l0.3-0.6l0.3-0.6l0.3-0.6
	l0.5-0.5l0.5-0.5l0.5-0.3l0.6-0.3l0.6-0.2L12,7.6l0.6-0.2l0.7-0.1h0.7h0.7l0.7,0.1l0.6,0.2l0.7,0.2l0.6,0.2l0.5,0.3l0.6,0.3l0.5,0.5
	L19,9.6l0.3,0.6l0.3,0.6l0.3,0.6l0.2,0.6l0.1,0.7l0.1,0.6v0.7v0.7l-0.1,0.7l-0.1,0.7l-0.2,0.6L19.7,17l-0.3,0.6L19,18l-0.5,0.6
	l-0.5,0.3l-0.6,0.5l-0.5,0.3L16.6,20l-0.7,0.2l-0.6,0.1l-0.7,0.1L13.9,20.5z M13.9,20.5 M27.9,13.5l-1.5-0.7l-0.2-0.1l-0.1-0.1
	L26,12.4l-0.1-0.2v-0.2l0.1-0.2l0.1-0.2l0.1-0.1l1.2-1.1l0,0L25.5,6l0,0l-1.6,0.2h-0.2h-0.3l-0.2-0.1L23,5.9l-0.1-0.2l-0.1-0.2V5.2
	l0.1-0.1l0.5-1.6V3.4L19.5,1h-0.1l-1.1,1l-0.3,0.2h-0.3h-0.3L17,2.2l-0.2-0.2l-0.1-0.3l-0.5-1.5V0h-4.5l-0.1,0.1l-0.3,1.5l-0.1,0.3
	l-0.2,0.2l-0.2,0.1h-0.3H10L9.6,2L8.5,1H8.4L4.5,3.4v0.1L5,5.1v0.1v0.2v0.2L4.9,5.9L4.6,6.1L4.5,6.2H4.2H4L2.4,6l0,0l-1.9,4.2l0,0
	l1.2,1.1l0.1,0.1l0.1,0.2L2,11.9v0.2l-0.1,0.2l-0.1,0.2l-0.1,0.1l-0.2,0.1L0,13.5l0,0L0.6,18l0.1,0.1l1.6,0.1l0.2,0.1l0.2,0.1
	l0.1,0.1l0.1,0.2L3.1,19v0.2v0.2l-0.1,0.2L2,21.1l0,0v0.1L5,24.6l0,0l1.5-0.7l0.2-0.1h0.2l0.3,0.1l0.3,0.2l0.2,0.2v0.5v1.6l0,0
	l4.4,1.4v-0.1l0.9-1.4l0.1-0.1l0.2-0.2h0.2l0.2-0.1l0.2,0.1h0.2l0.2,0.2l0.1,0.1l0.8,1.4l0.1,0.1l0,0l4.4-1.4l0,0v-1.6v-0.2v-0.2
	l0.2-0.2l0.3-0.2l0.1-0.1H21h0.2l0.1,0.1l1.5,0.7h0.1l2.9-3.4v-0.1l-0.9-1.4l-0.1-0.2v-0.2V19l0.1-0.2l0.1-0.2l0.1-0.1l0.2-0.1
	l0.2-0.1l1.6-0.1l0.1-0.1L27.9,13.5z"/>
</svg>
