<svg version="1.1" id="Layer_1" xmlns="http://www.w3.org/2000/svg" xmlns:xlink="http://www.w3.org/1999/xlink" x="0px" y="0px"
	 viewBox="0 0 16.3 16.3" enable-background="new 0 0 16.3 16.3" xml:space="preserve">
<polygon fill-rule="evenodd" clip-rule="evenodd" fill="#FFFFFF" points="16.3,2.9 16.3,13.5 16.2,14.1 16.1,14.6 15.8,15.1 
	15.4,15.5 15.1,15.9 14.5,16.1 13.9,16.3 13.4,16.3 2.8,16.3 2.3,16.3 1.8,16.1 1.2,15.9 0.9,15.5 0.5,15.1 0.2,14.6 0.1,14.1 
	0,13.5 0,2.9 0.1,2.4 0.2,1.8 0.5,1.2 0.9,0.9 1.2,0.6 1.8,0.2 2.3,0.1 2.8,0 13.4,0 13.9,0.1 14.5,0.2 15.1,0.6 15.4,0.9 15.8,1.2 
	16.1,1.8 16.2,2.4 "/>
</svg>
