<svg version="1.1" id="Layer_1" xmlns="http://www.w3.org/2000/svg" xmlns:xlink="http://www.w3.org/1999/xlink" x="0px" y="0px"
	 viewBox="0 0 67.7 59.2" enable-background="new 0 0 67.7 59.2" xml:space="preserve">
<polygon fill-rule="evenodd" clip-rule="evenodd" points="39.9,3.4 66.8,48.6 67.1,49.4 67.5,50.3 67.7,51.3 67.7,52.2 67.7,53.1 
	67.5,54 67.2,54.8 66.8,55.7 66.3,56.5 65.7,57.1 65,57.8 64.3,58.3 63.4,58.7 62.6,59 61.7,59.2 60.7,59.2 7,59.2 6,59.2 5.1,59 
	4.3,58.7 3.5,58.3 2.7,57.8 2,57.1 1.5,56.5 0.9,55.7 0.6,54.8 0.2,54 0,53.1 0,52.2 0.1,51.3 0.2,50.3 0.6,49.4 1,48.6 27.8,3.4 
	28.3,2.7 28.9,2 29.6,1.4 30.4,0.9 31.2,0.6 32,0.2 32.9,0.1 33.9,0 34.8,0.1 35.7,0.2 36.5,0.6 37.3,0.9 38.1,1.4 38.8,2 39.3,2.7 
	"/>
</svg>
